Project 2: Data Mining, Classification, Prediction
…
library(tidyverse)
# read your datasets in here, e.g., with read_csv()
Guns <- read_csv("Guns.csv")
Guns

## # A tibble: 1,173 x 14
##       X1  year violent murder robbery prisoners  afam  cauc  male population
##    <dbl> <dbl>   <dbl>  <dbl>   <dbl>     <dbl> <dbl> <dbl> <dbl>      <dbl>
##  1     1  1977    414.   14.2    96.8        83  8.38  55.1  18.2       3.78
##  2     2  1978    419.   13.3    99.1        94  8.35  55.1  18.0       3.83
##  3     3  1979    413.   13.2   110.        144  8.33  55.1  17.8       3.87
##  4     4  1980    448.   13.2   132.        141  8.41  54.9  17.7       3.90
##  5     5  1981    470.   11.9   126.        149  8.48  54.9  17.7       3.92
##  6     6  1982    448.   10.6   112         183  8.51  54.9  17.5       3.93
##  7     7  1983    416     9.2    98.4       215  8.55  54.8  17.4       3.93
##  8     8  1984    431.    9.4    96.1       243  8.56  54.8  17.1       3.95
##  9     9  1985    458.    9.8   105.        256  8.56  54.7  16.9       3.97
## 10    10  1986    558    10.1   112.        267  8.57  54.5  16.6       3.99
## #  with 1,163 more rows, and 4 more variables: income <dbl>, density <dbl>,
## #   state <chr>, law <chr>

# Dataset (only numeric variables)
set.seed(322)
num.guns <- Guns %>% select_if(is.numeric) %>% dplyr::select(-"X1")
num.guns

## # A tibble: 1,173 x 11
##     year violent murder robbery prisoners  afam  cauc  male population income
##    <dbl>   <dbl>  <dbl>   <dbl>     <dbl> <dbl> <dbl> <dbl>      <dbl>  <dbl>
##  1  1977    414.   14.2    96.8        83  8.38  55.1  18.2       3.78  9563.
##  2  1978    419.   13.3    99.1        94  8.35  55.1  18.0       3.83  9932 
##  3  1979    413.   13.2   110.        144  8.33  55.1  17.8       3.87  9877.
##  4  1980    448.   13.2   132.        141  8.41  54.9  17.7       3.90  9541.
##  5  1981    470.   11.9   126.        149  8.48  54.9  17.7       3.92  9548.
##  6  1982    448.   10.6   112         183  8.51  54.9  17.5       3.93  9479.
##  7  1983    416     9.2    98.4       215  8.55  54.8  17.4       3.93  9783 
##  8  1984    431.    9.4    96.1       243  8.56  54.8  17.1       3.95 10357.
##  9  1985    458.    9.8   105.        256  8.56  54.7  16.9       3.97 10726.
## 10  1986    558    10.1   112.        267  8.57  54.5  16.6       3.99 11092.
## #  with 1,163 more rows, and 1 more variable: density <dbl>
…
# Summarize Cluster
clust %>% group_by(cluster) %>% summarize_if(is.numeric, mean, 
    na.rm = T)

## # A tibble: 2 x 12
##   cluster  year violent murder robbery prisoners  afam  cauc  male population
##   <fct>   <dbl>   <dbl>  <dbl>   <dbl>     <dbl> <dbl> <dbl> <dbl>      <dbl>
## 1 1       1986.    416.   6.90    115.      182.  4.46  64.2  16.7       3.73
## 2 2       1992.    635.   8.82    233.      295.  6.66  61.1  15.1       6.46
## #  with 2 more variables: income <dbl>, density <dbl>

# Final Medoids
Guns %>% select(-"X1") %>% slice(gun_pam$id.med)

## # A tibble: 2 x 13
##    year violent murder robbery prisoners  afam  cauc  male population income
##   <dbl>   <dbl>  <dbl>   <dbl>     <dbl> <dbl> <dbl> <dbl>      <dbl>  <dbl>
## 1  1982    444.   10.8    133.       169  4.88  63.1  17.4       3.21 12195.
## 2  1996    480.    5.7    189        268  3.93  64.8  13.2      12.0  15772.
## #  with 3 more variables: density <dbl>, state <chr>, law <chr>

Between the two clusters, violent shows the greatest difference and murder shows the least difference.Cluster 1 showed higher violent and murder rates than Cluster 2; however, Cluster 1 has lower robbery rates than Cluster 2. When only considering violent, murder, and robbery, murder showed the least difference between the two clusters and violent showed the greatest difference.The overall average silhouette width after running the analysis is 0.5449277, which is reasonable cluster structure solution since it is between 0.51 and 0.70.

Dimensionality Reduction with PCA

# PCA code
pca1 <- princomp(num.guns, cor = T)
summary(pca1, loadings = T)

## Importance of components:
##                           Comp.1    Comp.2    Comp.3     Comp.4     Comp.5
## Standard deviation     2.3003988 1.5290237 1.0764414 0.93124074 0.75682072
## Proportion of Variance 0.4810759 0.2125376 0.1053387 0.07883721 0.05207069
## Cumulative Proportion  0.4810759 0.6936135 0.7989522 0.87778944 0.92986013
##                            Comp.6    Comp.7      Comp.8      Comp.9     Comp.10
## Standard deviation     0.55183817 0.4537914 0.330808130 0.311080599 0.210625161
## Proportion of Variance 0.02768412 0.0187206 0.009948547 0.008797376 0.004032996
## Cumulative Proportion  0.95754426 0.9762649 0.986213407 0.995010784 0.999043780
##                           Comp.11
## Standard deviation     0.10255935
## Proportion of Variance 0.00095622
## Cumulative Proportion  1.00000000
## 
## Loadings:
##            Comp.1 Comp.2 Comp.3 Comp.4 Comp.5 Comp.6 Comp.7 Comp.8 Comp.9
## year        0.108  0.591  0.176  0.123  0.171                0.410  0.609
## violent     0.391        -0.231 -0.150  0.158        -0.567  0.288       
## murder      0.374 -0.179        -0.241  0.297 -0.236        -0.610  0.500
## robbery     0.385 -0.116 -0.256 -0.193 -0.122  0.293 -0.280  0.159       
## prisoners   0.356  0.193  0.137         0.418 -0.473  0.287  0.188 -0.514
## afam        0.338 -0.162  0.255  0.529 -0.137                            
## cauc       -0.336  0.184 -0.252 -0.521        -0.134         0.104  0.101
## male       -0.114 -0.586               -0.117 -0.491  0.133  0.498  0.310
## population               -0.815  0.385  0.118         0.380              
##            Comp.10 Comp.11
## year                0.111 
## violent    -0.580         
## murder                    
## robbery     0.725         
## prisoners   0.179         
## afam               -0.698 
## cauc               -0.685 
## male                0.128 
## population                
##  [ reached getOption("max.print") -- omitted 2 rows ]
…
